<?xml version='1.0' encoding='utf-8'?>
<svg xmlns="http://www.w3.org/2000/svg" width="16" height="54" viewBox="0 0 16 54">
<<<<<<< HEAD
  <rect x="0.5" y="0.5" width="15" height="53" rx="2" ry="2" fill="#fcfcfc" stroke="#303030" stroke-width="1"/>
=======
  <rect x="0.5" y="0.5" width="15" height="53" rx="2" ry="2" fill="#eccdd1" stroke="#d39da5" stroke-width="1"/>
>>>>>>> upstream/master
</svg>
