<?xml version='1.0' encoding='utf-8'?>
<svg xmlns="http://www.w3.org/2000/svg" width="70" height="20" viewBox="0 0 70 20">
<<<<<<< HEAD
  <rect x="0.5" y="0.5" width="69" height="19" rx="2" ry="2" fill="#fcfcfc" stroke="#303030" stroke-width="1"/>
=======
  <rect x="0.5" y="0.5" width="69" height="19" rx="2" ry="2" fill="#f1f2d6" stroke="#c7c99b" stroke-width="1"/>
>>>>>>> upstream/master
</svg>
