<?xml version='1.0' encoding='utf-8'?>
<svg xmlns="http://www.w3.org/2000/svg" width="78" height="30" viewBox="0 0 78 30">
<<<<<<< HEAD
  <rect x="0.5" y="0.5" width="77" height="29" rx="2" ry="2" fill="#fcfcfc" stroke="#303030" stroke-width="1"/>
=======
  <rect x="0.5" y="0.5" width="77" height="29" rx="2" ry="2" fill="#f4d7ce" stroke="#d9a999" stroke-width="1"/>
>>>>>>> upstream/master
</svg>
