<?xml version='1.0' encoding='utf-8'?>
<svg xmlns="http://www.w3.org/2000/svg" width="44" height="66" viewBox="0 0 44 66">
<<<<<<< HEAD
  <rect x="0.5" y="0.5" width="43" height="65" rx="2" ry="2" fill="#fcfcfc" stroke="#303030" stroke-width="1"/>
=======
  <rect x="0.5" y="0.5" width="43" height="65" rx="2" ry="2" fill="#f4d7ce" stroke="#d9a999" stroke-width="1"/>
>>>>>>> upstream/master
</svg>
