<?xml version='1.0' encoding='utf-8'?>
<svg xmlns="http://www.w3.org/2000/svg" width="51" height="51" viewBox="0 0 51 51">
<<<<<<< HEAD
  <rect x="0.5" y="0.5" width="50" height="50" rx="2" ry="2" fill="#fcfcfc" stroke="#303030" stroke-width="1"/>
=======
  <rect x="0.5" y="0.5" width="50" height="50" rx="2" ry="2" fill="#f4d7ce" stroke="#d9a999" stroke-width="1"/>
>>>>>>> upstream/master
</svg>
